mastR_Demo • mastR
…
NK markers from Curson’s
Publication

## show what NK_markers looks like:
data("NK_markers")
NK_markers
#> # A tibble: 114 × 4
#>    HGNC_Symbol LM22  LM7   Huntington
#>    <chr>       <chr> <chr> <chr>     
#>  1 APOBEC3G    TRUE  -     -         
#>  2 APOL6       TRUE  -     -         
#>  3 AZU1        TRUE  -     -         
#>  4 BPI         TRUE  -     -         
#>  5 CAMP        TRUE  -     -         
#>  6 CCL4        TRUE  -     -         
#>  7 CCL5        TRUE  -     TRUE      
#>  8 CCND2       TRUE  -     -         
#>  9 CD160       TRUE  -     -         
#> 10 CD2         TRUE  -     -         
#> # … with 104 more rows
…
